{"original_content": "**Endpoint:** `GET /pipelines/{pipeline_id}/executions` **Query Parameters:** - `status` (optional): Filter by status (`running`, `completed`, `failed`) - `start_date` (optional): ISO 8601 timestamp - `end_date` (optional): ISO 8601 timestamp - `limit` (optional): Items per page (max 100) - `offset` (optional): Pagination offset **Example Request:** ```python import requests api_key = \"YOUR_API_KEY\" pipeline_id = \"pipe_4x9k2m\" url = f\"https://api.cloudflow.io/v2/pipelines/{pipeline_id}/executions\" headers = {\"X-API-Key\": api_key} params = { \"status\": \"completed\", \"start_date\": \"2026-01-20T00:00:00Z\", \"limit\": 50 } response = requests.get(url, headers=headers, params=params) executions = response.json() for execution in executions['data']: print(f\"Execution {execution['id']}: {execution['status']} - {execution['duration_ms']}ms\") ``` **Example Response (200 OK):** ```json { \"data\": [ { \"id\": \"exec_7m3k9x2p\", \"pipeline_id\": \"pipe_4x9k2m\", \"status\": \"completed\", \"started_at\": \"2026-01-23T15:00:00Z\", \"completed_at\": \"2026-01-23T15:03:42Z\", \"duration_ms\": 222000, \"records_processed\": 15420, \"records_failed\": 3, \"error_rate\": 0.02 } ], \"pagination\": { \"total\": 156, \"limit\": 50, \"offset\": 0, \"has_more\": true } } ``` ### Analytics #### Get Workflow Metrics Retrieve performance metrics and analytics for workflows. **Endpoint:** `GET /analytics/workflows/{workflow_id}` **Query Parameters:** - `period` (required): Time period (`1h`, `24h`, `7d`, `30d`) - `metrics` (optional): Comma-separated list of metrics **Available Metrics:** - `execution_count`: Total number of executions - `success_rate`: Percentage of successful executions - `avg_duration`: Average execution duration in milliseconds - `error_count`: Total number of errors - `throughput`: Records processed per hour **Example Request:** ```bash curl -H \"X-API-Key: YOUR_API_KEY\" \\ \"https://api.cloudflow.io/v2/analytics/workflows/wf_8x7k2m9p?period=7d&metrics=execution_count,success_rate,avg_duration\" ``` **Example Response (200 OK):** ```json { \"workflow_id\": \"wf_8x7k2m9p\", \"period\": \"7d\", \"start_date\": \"2026-01-17T10:30:00Z\", \"end_date\": \"2026-01-24T10:30:00Z\", \"metrics\": { \"execution_count\": 168, \"success_rate\": 97.6, \"avg_duration\": 3285, \"error_count\": 4, \"throughput\": 2847 }, \"timeseries\": [ { \"timestamp\": \"2026-01-17T00:00:00Z\", \"execution_count\": 24, \"success_rate\": 100.0 }, { \"timestamp\": \"2026-01-18T00:00:00Z\", \"execution_count\": 24, \"success_rate\": 95.8 } ] } ``` ## Error Handling CloudFlow uses standard HTTP status codes and returns detailed error information in JSON format.", "enhanced_content": "Query Parameters, Pagination offset, optional, Retrieve performance, Metrics Retrieve, ISO, Workflow Metrics | ISO 8601, JSON\n\n**Endpoint:** `GET /pipelines/{pipeline_id}/executions` **Query Parameters:** - `status` (optional): Filter by status (`running`, `completed`, `failed`) - `start_date` (optional): ISO 8601 timestamp - `end_date` (optional): ISO 8601 timestamp - `limit` (optional): Items per page (max 100) - `offset` (optional): Pagination offset **Example Request:** ```python import requests api_key = \"YOUR_API_KEY\" pipeline_id = \"pipe_4x9k2m\" url = f\"https://api.cloudflow.io/v2/pipelines/{pipeline_id}/executions\" headers = {\"X-API-Key\": api_key} params = { \"status\": \"completed\", \"start_date\": \"2026-01-20T00:00:00Z\", \"limit\": 50 } response = requests.get(url, headers=headers, params=params) executions = response.json() for execution in executions['data']: print(f\"Execution {execution['id']}: {execution['status']} - {execution['duration_ms']}ms\") ``` **Example Response (200 OK):** ```json { \"data\": [ { \"id\": \"exec_7m3k9x2p\", \"pipeline_id\": \"pipe_4x9k2m\", \"status\": \"completed\", \"started_at\": \"2026-01-23T15:00:00Z\", \"completed_at\": \"2026-01-23T15:03:42Z\", \"duration_ms\": 222000, \"records_processed\": 15420, \"records_failed\": 3, \"error_rate\": 0.02 } ], \"pagination\": { \"total\": 156, \"limit\": 50, \"offset\": 0, \"has_more\": true } } ``` ### Analytics #### Get Workflow Metrics Retrieve performance metrics and analytics for workflows. **Endpoint:** `GET /analytics/workflows/{workflow_id}` **Query Parameters:** - `period` (required): Time period (`1h`, `24h`, `7d`, `30d`) - `metrics` (optional): Comma-separated list of metrics **Available Metrics:** - `execution_count`: Total number of executions - `success_rate`: Percentage of successful executions - `avg_duration`: Average execution duration in milliseconds - `error_count`: Total number of errors - `throughput`: Records processed per hour **Example Request:** ```bash curl -H \"X-API-Key: YOUR_API_KEY\" \\ \"https://api.cloudflow.io/v2/analytics/workflows/wf_8x7k2m9p?period=7d&metrics=execution_count,success_rate,avg_duration\" ``` **Example Response (200 OK):** ```json { \"workflow_id\": \"wf_8x7k2m9p\", \"period\": \"7d\", \"start_date\": \"2026-01-17T10:30:00Z\", \"end_date\": \"2026-01-24T10:30:00Z\", \"metrics\": { \"execution_count\": 168, \"success_rate\": 97.6, \"avg_duration\": 3285, \"error_count\": 4, \"throughput\": 2847 }, \"timeseries\": [ { \"timestamp\": \"2026-01-17T00:00:00Z\", \"execution_count\": 24, \"success_rate\": 100.0 }, { \"timestamp\": \"2026-01-18T00:00:00Z\", \"execution_count\": 24, \"success_rate\": 95.8 } ] } ``` ## Error Handling CloudFlow uses standard HTTP status codes and returns detailed error information in JSON format.", "enrichment_type": "fast", "metadata": {"code_ratio": 0.67, "processing_time_ms": 34.64, "keyword_count": 10, "entity_count": 2}, "keywords": ["Query Parameters", "Pagination offset", "optional", "Retrieve performance", "Metrics Retrieve", "ISO", "Workflow Metrics", "Total number", "timestamp", "performance metrics"], "questions": [], "summary": "", "entities": {"LAW": ["ISO 8601"], "GPE": ["JSON"]}, "contextual_prefix": ""}