{"original_content": "## Rate Limiting To ensure fair usage and system stability, CloudFlow enforces rate limits on all API endpoints. **Default Limits:** - 100 requests per minute per authenticated user - 20 requests per minute for unauthenticated requests - Burst allowance: 150 requests in a 10-second window ### Rate Limit Headers Every API response includes rate limit information: ``` X-RateLimit-Limit: 100 X-RateLimit-Remaining: 87 X-RateLimit-Reset: 1640995200 ``` When you exceed the rate limit, you'll receive a `429 Too Many Requests` response: ```json { \"error\": { \"code\": \"rate_limit_exceeded\", \"message\": \"Rate limit exceeded. Please retry after 42 seconds.\", \"retry_after\": 42 } } ``` **Best Practices:** - Monitor `X-RateLimit-Remaining` header values - Implement exponential backoff when receiving 429 responses - Cache responses when appropriate to reduce API calls - Consider upgrading to Enterprise tier for higher limits (1000 req/min) ## Pagination List endpoints return paginated results to optimize performance. Use `limit` and `offset` parameters to navigate through result sets. **Parameters:** - `limit`: Number of items per page (default: 20, max: 100) - `offset`: Number of items to skip (default: 0) **Example Request:** ```bash curl -H \"X-API-Key: YOUR_API_KEY\" \\ \"https://api.cloudflow.io/v2/workflows?limit=50&offset=100\" ``` **Response Structure:** ```json { \"data\": [...], \"pagination\": { \"total\": 347, \"limit\": 50, \"offset\": 100, \"has_more\": true } } ``` **Python Example:** ```python import requests def fetch_all_workflows(api_key): base_url = \"https://api.cloudflow.io/v2/workflows\" headers = {\"X-API-Key\": api_key} all_workflows = [] offset = 0 limit = 100 while True: response = requests.get( base_url, headers=headers, params={\"limit\": limit, \"offset\": offset} ) data = response.json() all_workflows.extend(data['data']) if not data['pagination']['has_more']: break offset += limit return all_workflows ``` ## Endpoints ### Workflows #### List Workflows Retrieve a paginated list of all workflows in your account. **Endpoint:** `GET /workflows` **Query Parameters:** - `status` (optional): Filter by status (`active`, `paused`, `archived`) - `created_after` (optional): ISO 8601 timestamp - `limit` (optional): Items per page (max 100) - `offset` (optional): Pagination offset **Example Request:** ```bash curl -H \"X-API-Key: YOUR_API_KEY\" \\ \"https://api.cloudflow.io/v2/workflows?status=active&limit=25\" ``` **Example Response (200 OK):** ```json { \"data\": [ { \"id\": \"wf_8x7k2m9p\", \"name\": \"Data Processing Pipeline\", \"description\": \"Processes customer data every hour\", \"status\": \"active\", \"trigger\": { \"type\": \"schedule\", \"cron\": \"0 * * * *\" }, \"steps\": 12, \"created_at\": \"2026-01-15T10:30:00Z\", \"updated_at\": \"2026-01-23T14:22:00Z\", \"last_run\": \"2026-01-24T09:00:00Z\" } ], \"pagination\": { \"total\": 1, \"limit\": 25, \"offset\": 0, \"has_more\": false } } ``` #### Create Workflow Create a new workflow with specified configuration.", "enhanced_content": "Rate Limiting, Rate Limit, Rate, system stability, CloudFlow enforces, enforces rate, API | CloudFlow, API, max, ISO 8601\n\n## Rate Limiting To ensure fair usage and system stability, CloudFlow enforces rate limits on all API endpoints. **Default Limits:** - 100 requests per minute per authenticated user - 20 requests per minute for unauthenticated requests - Burst allowance: 150 requests in a 10-second window ### Rate Limit Headers Every API response includes rate limit information: ``` X-RateLimit-Limit: 100 X-RateLimit-Remaining: 87 X-RateLimit-Reset: 1640995200 ``` When you exceed the rate limit, you'll receive a `429 Too Many Requests` response: ```json { \"error\": { \"code\": \"rate_limit_exceeded\", \"message\": \"Rate limit exceeded. Please retry after 42 seconds.\", \"retry_after\": 42 } } ``` **Best Practices:** - Monitor `X-RateLimit-Remaining` header values - Implement exponential backoff when receiving 429 responses - Cache responses when appropriate to reduce API calls - Consider upgrading to Enterprise tier for higher limits (1000 req/min) ## Pagination List endpoints return paginated results to optimize performance. Use `limit` and `offset` parameters to navigate through result sets. **Parameters:** - `limit`: Number of items per page (default: 20, max: 100) - `offset`: Number of items to skip (default: 0) **Example Request:** ```bash curl -H \"X-API-Key: YOUR_API_KEY\" \\ \"https://api.cloudflow.io/v2/workflows?limit=50&offset=100\" ``` **Response Structure:** ```json { \"data\": [...], \"pagination\": { \"total\": 347, \"limit\": 50, \"offset\": 100, \"has_more\": true } } ``` **Python Example:** ```python import requests def fetch_all_workflows(api_key): base_url = \"https://api.cloudflow.io/v2/workflows\" headers = {\"X-API-Key\": api_key} all_workflows = [] offset = 0 limit = 100 while True: response = requests.get( base_url, headers=headers, params={\"limit\": limit, \"offset\": offset} ) data = response.json() all_workflows.extend(data['data']) if not data['pagination']['has_more']: break offset += limit return all_workflows ``` ## Endpoints ### Workflows #### List Workflows Retrieve a paginated list of all workflows in your account. **Endpoint:** `GET /workflows` **Query Parameters:** - `status` (optional): Filter by status (`active`, `paused`, `archived`) - `created_after` (optional): ISO 8601 timestamp - `limit` (optional): Items per page (max 100) - `offset` (optional): Pagination offset **Example Request:** ```bash curl -H \"X-API-Key: YOUR_API_KEY\" \\ \"https://api.cloudflow.io/v2/workflows?status=active&limit=25\" ``` **Example Response (200 OK):** ```json { \"data\": [ { \"id\": \"wf_8x7k2m9p\", \"name\": \"Data Processing Pipeline\", \"description\": \"Processes customer data every hour\", \"status\": \"active\", \"trigger\": { \"type\": \"schedule\", \"cron\": \"0 * * * *\" }, \"steps\": 12, \"created_at\": \"2026-01-15T10:30:00Z\", \"updated_at\": \"2026-01-23T14:22:00Z\", \"last_run\": \"2026-01-24T09:00:00Z\" } ], \"pagination\": { \"total\": 1, \"limit\": 25, \"offset\": 0, \"has_more\": false } } ``` #### Create Workflow Create a new workflow with specified configuration.", "enrichment_type": "fast", "metadata": {"code_ratio": 0.53, "processing_time_ms": 53.34, "keyword_count": 10, "entity_count": 4}, "keywords": ["Rate Limiting", "Rate Limit", "Rate", "system stability", "CloudFlow enforces", "enforces rate", "API", "ensure fair", "fair usage", "API endpoints"], "questions": [], "summary": "", "entities": {"ORG": ["CloudFlow", "API"], "PERSON": ["max"], "LAW": ["ISO 8601"]}, "contextual_prefix": ""}